{
	"devices": {
		"datetime": {
			"protocol": [ "datetime" ],
			"id": [{
				"longitude": 9.587714,
				"latitude": 54.394877
			}],
			"year": 2018,
			"month": 5,
			"day": 19,
			"hour": 19,
			"minute": 35,
			"second": 39,
			"weekday": 7,
			"dst": 1
		},
		"sunriseset": {
			"protocol": [ "sunriseset" ],
			"id": [{
				"longitude": 9.587714,
				"latitude": 54.394877
			}],
			"sunrise": 5.10,
			"sunset": 21.28,
			"sun": "rise"
		},
		"DoseFlur": {
			"protocol": [ "intertechno_switch" ],
			"id": [{
				"id": 15764386,
				"unit": 1
			}],
			"state": "off"
		},
		"DoseStube": {
			"protocol": [ "intertechno_switch" ],
			"id": [{
				"id": 15764386,
				"unit": 0
			}],
			"state": "off"
		},
		"DoseTerasse": {
			"protocol": [ "intertechno_switch" ],
			"id": [{
				"id": 15764386,
				"unit": 2
			}],
			"state": "off"
		},
		"Dosereserve": {
			"protocol": [ "intertechno_switch" ],
			"id": [{
				"id": 15764386,
				"unit": 5
			}],
			"state": "off"
		},
		"Dosereserve1": {
			"protocol": [ "intertechno_switch" ],
			"id": [{
				"id": 15764386,
				"unit": 6
			}],
			"state": "off"
		},
		"DoseAquariumStube": {
			"protocol": [ "intertechno_switch" ],
			"id": [{
				"id": 15764386,
				"unit": 4
			}],
			"state": "on"
		},
		"DoseAquariumArbeitszimmer": {
			"protocol": [ "intertechno_switch" ],
			"id": [{
				"id": 15764386,
				"unit": 3
			}],
			"state": "on"
		},
		"DoseHauseingang": {
			"protocol": [ "intertechno_switch" ],
			"id": [{
				"id": 15764386,
				"unit": 7
			}],
			"state": "off"
		},
		"DoseKatzenhaus": {
			"protocol": [ "intertechno_switch" ],
			"id": [{
				"id": 15764386,
				"unit": 8
			}],
			"state": "off"
		},
		"outside": {
			"protocol": [ "wunderground" ],
			"id": [{
				"api": "6df7ea79cf8be32a",
				"country": "de",
				"location": "owschlag"
			}],
			"humidity": 57,
			"temperature": 19.90,
			"sunrise": 5.10,
			"sunset": 21.26,
			"sun": "rise",
			"poll-interval": 3600,
			"update": 1
		}
	},
	"rules": {
		"lightswitch_frueh_off": {
			"rule": "IF (sunriseset.sunrise == ((datetime.hour) + (datetime.minute / 100))) THEN switch DEVICE DoseFlur AND DoseStube AND DoseTerasse AND DoseHauseingang AND Dosereserve AND Dosereserve1 TO off",
			"active": 1
		},
		"lightswitch_abend_on": {
			"rule": "IF (sunriseset.sunset == ((datetime.hour) + (datetime.minute / 100))) THEN switch DEVICE DoseFlur AND DoseStube AND DoseTerasse AND DoseHauseingang AND Dosereserve AND Dosereserve1 TO on",
			"active": 1
		},
		"lightswitch_abend_off": {
			"rule": "IF datetime.hour == 23 AND datetime.minute == 00 THEN switch DEVICE DoseFlur AND DoseStube AND DoseTerasse AND DoseHauseingang AND Dosereserve AND Dosereserve1 AND DoseHauseingang TO off",
			"active": 1
		},
		"lightswitch_beam_abend_off": {
			"rule": "IF datetime.hour == 22 AND datetime.minute == 00 THEN switch DEVICE DoseHauseingang TO off",
			"active": 0
		},
		"aquaswitch_morgens_on": {
			"rule": "IF datetime.hour == 06 AND datetime.minute == 00 THEN switch DEVICE DoseAquariumStube AND DoseAquariumArbeitszimmer TO on",
			"active": 1
		},
		"aquaswitch_vormittag_off": {
			"rule": "IF datetime.hour == 11 AND datetime.minute == 00 THEN switch DEVICE DoseAquariumStube AND DoseAquariumArbeitszimmer TO off",
			"active": 1
		},
		"aquaswitch_nachmittag_on": {
			"rule": "IF datetime.hour == 14 AND datetime.minute == 00 THEN switch DEVICE DoseAquariumStube AND DoseAquariumArbeitszimmer TO on",
			"active": 1
		},
		"aquaswitch_abend_off": {
			"rule": "IF datetime.hour == 21 AND datetime.minute == 00 THEN switch DEVICE DoseAquariumStube AND DoseAquariumArbeitszimmer TO off",
			"active": 1
		},
		"fruehswitch_frueh_on": {
			"rule": "IF datetime.hour == 04 AND datetime.minute == 00 THEN switch DEVICE DoseFlur AND DoseTerasse TO on",
			"active": 1
		},
		"fruehswitch_rest_on": {
			"rule": "IF datetime.hour == 04 AND datetime.minute == 30 THEN switch DEVICE DoseStube AND Dosereserve AND Dosereserve1 AND DoseHauseingang TO on",
			"active": 1
		},
		"katzenhaus_on": {
			"rule": "IF outside.temperature < 2.0 THEN switch DEVICE DoseKatzenhaus TO on",
			"active": 1
		},
		"katzenhaus_off": {
			"rule": "IF outside.temperature > 2.01 THEN switch DEVICE DoseKatzenhaus TO off",
			"active": 1
		}
	},
	"gui": {
		"datetime": {
			"name": "Datum und Zeit",
			"group": [ "Allgemein" ],
			"media": [ "all" ],
			"format": "DD-MM-YYYY HH:mm:ss Z"
		},
		"DoseFlur": {
			"name": "Flur",
			"group": [ "Steckdosen" ],
			"media": [ "all" ],
			"readonly": 0
		},
		"DoseStube": {
			"name": "Stube",
			"group": [ "Steckdosen" ],
			"media": [ "all" ],
			"readonly": 0
		},
		"DoseTerasse": {
			"name": "Terasse",
			"group": [ "Steckdosen" ],
			"media": [ "all" ],
			"readonly": 0
		},
		"DoseHauseingang": {
			"name": "Hauseingang",
			"group": [ "Steckdosen" ],
			"media": [ "all" ],
			"readonly": 0
		},
		"Dosereserve": {
			"name": "Festtagsbeleuchtung",
			"group": [ "Steckdosen" ],
			"media": [ "all" ],
			"readonly": 0
		},
		"Dosereserve1": {
			"name": "Festtagsbeleuchtung",
			"group": [ "Steckdosen" ],
			"media": [ "all" ],
			"readonly": 0
		},
		"DoseAquariumStube": {
			"name": "Aquarium Stube",
			"group": [ "Steckdosen" ],
			"media": [ "all" ],
			"readonly": 0
		},
		"DoseAquariumArbeitszimmer": {
			"name": "Aquarium Arbeitszimmer",
			"group": [ "Steckdosen" ],
			"media": [ "all" ],
			"readonly": 0
		},
		"DoseKatzenhaus": {
			"name": "Katzenhaus",
			"group": [ "Steckdosen" ],
			"media": [ "all" ],
			"readonly": 0
		},
		"outside": {
			"name": "Sonnenaufgang/Sonnenuntergang/Aussentemperatur/Luftfeuchte",
			"group": [ "Allgemein" ],
			"media": [ "all" ]
		},
		"sunriseset": {
			"name": "Sonnenaufgang/Sonnenuntergang",
			"group": [ "Allgemein" ],
			"media": [ "all" ]
		}
	},
	"settings": {
		"log-level": 6,
		"pid-file": "/var/run/pilight.pid",
		"log-file": "/var/log/pilight.log",
		"webserver-enable": 1,
		"webserver-http-port": 80,
		"webserver-cache": 0,
		"webserver-root": "/usr/local/share/pilight",
		"protocol-root": "/usr/local/lib/pilight/protocols",
		"ntp-servers": [ "0.de.pool.ntp.org", "1.de.pool.ntp.org" ],
		"watchdog-enable": 1
	},
	"hardware": {
		"433gpio": {
			"sender": 0,
			"receiver": 1
		}
	},
	"registry": {
		"pilight": {
			"firmware": {
				"version": 30751,
				"lpf": 81760,
				"hpf": 630570
			},
			"version": {
				"current": "7.0"
			}
		},
		"webgui": {
			"tabs": 0
		}
	}
}