{
	"devices": {
		"d_datetime": {
			"protocol": [ "datetime" ],
			"id": [{
				"longitude": 9.587714,
				"latitude": 54.394877
			}],
			"year": 2019,
			"month": 4,
			"day": 9,
			"hour": 20,
			"minute": 50,
			"second": 9,
			"weekday": 3,
			"dst": 1
		},
		"d_sunriseset": {
			"protocol": [ "sunriseset" ],
			"id": [{
				"longitude": 9.587714,
				"latitude": 54.394877
			}],
			"sunrise": 6.36,
			"sunset": 20.14,
			"sun": "set"
		},
		"DoseFlur": {
			"protocol": [ "intertechno_switch" ],
			"id": [{
				"id": 15764386,
				"unit": 1
			}],
			"state": "on"
		},
		"DoseStube": {
			"protocol": [ "intertechno_switch" ],
			"id": [{
				"id": 15764386,
				"unit": 0
			}],
			"state": "on"
		},
		"DoseTerasse": {
			"protocol": [ "intertechno_switch" ],
			"id": [{
				"id": 15764386,
				"unit": 2
			}],
			"state": "on"
		},
		"Dosereserve": {
			"protocol": [ "intertechno_switch" ],
			"id": [{
				"id": 15764386,
				"unit": 5
			}],
			"state": "on"
		},
		"Dosereserve1": {
			"protocol": [ "intertechno_switch" ],
			"id": [{
				"id": 15764386,
				"unit": 6
			}],
			"state": "on"
		},
		"DoseAquariumStube": {
			"protocol": [ "intertechno_switch" ],
			"id": [{
				"id": 15764386,
				"unit": 4
			}],
			"state": "on"
		},
		"DoseAquariumArbeitszimmer": {
			"protocol": [ "intertechno_switch" ],
			"id": [{
				"id": 15764386,
				"unit": 3
			}],
			"state": "on"
		},
		"DoseHauseingang": {
			"protocol": [ "intertechno_switch" ],
			"id": [{
				"id": 15764386,
				"unit": 7
			}],
			"state": "on"
		},
		"DoseKatzenhaus": {
			"protocol": [ "intertechno_switch" ],
			"id": [{
				"id": 15764386,
				"unit": 8
			}],
			"state": "on"
		},
		"outside": {
			"protocol": [ "generic_weather" ],
			"id": [{
				"id": 100
			}],
			"humidity": 87.00,
			"temperature": 15.29,
			"battery": 0
		}
	},
	"rules": {
		"lightswitch_frueh_off": {
			"rule": "IF (d_sunriseset.sunrise == (d_datetime.hour + (d_datetime.minute / 100))) THEN switch DEVICE DoseFlur AND DoseStube AND DoseTerasse AND DoseHauseingang AND Dosereserve AND Dosereserve1 TO off",
			"active": 0
		},
		"lightswitch_abend_on": {
			"rule": "IF (d_sunriseset.sunset == (d_datetime.hour + (d_datetime.minute / 100))) THEN switch DEVICE DoseFlur AND DoseStube AND DoseTerasse AND DoseHauseingang AND Dosereserve AND Dosereserve1 TO on",
			"active": 0
		},
		"lightswitch_abend_off": {
			"rule": "IF d_datetime.hour == 23 AND d_datetime.minute == 00 THEN switch DEVICE DoseFlur AND DoseStube AND DoseTerasse AND DoseHauseingang AND Dosereserve AND Dosereserve1 AND DoseHauseingang AND DoseAquariumStube AND DoseAquariumArbeitszimmer TO off",
			"active": 0
		},
		"lightswitch_beam_abend_off": {
			"rule": "IF d_datetime.hour == 16 AND d_datetime.minute == 49 THEN switch DEVICE DoseStube TO off",
			"active": 0
		},
		"aquaswitch_morgens_on": {
			"rule": "IF d_datetime.hour == 06 AND d_datetime.minute == 00 THEN switch DEVICE DoseAquariumStube AND DoseAquariumArbeitszimmer TO on",
			"active": 0
		},
		"aquaswitch_vormittag_off": {
			"rule": "IF d_datetime.hour == 11 AND d_datetime.minute == 00 THEN switch DEVICE DoseAquariumStube AND DoseAquariumArbeitszimmer TO off",
			"active": 0
		},
		"aquaswitch_nachmittag_on": {
			"rule": "IF d_datetime.hour == 14 AND d_datetime.minute == 00 THEN switch DEVICE DoseAquariumStube AND DoseAquariumArbeitszimmer TO on",
			"active": 0
		},
		"aquaswitch_abend_off": {
			"rule": "IF d_datetime.hour == 21 AND d_datetime.minute == 00 THEN switch DEVICE DoseAquariumStube AND DoseAquariumArbeitszimmer TO off",
			"active": 0
		},
		"fruehswitch_frueh_on": {
			"rule": "IF d_datetime.hour == 04 AND d_datetime.minute == 00 THEN switch DEVICE DoseFlur AND DoseTerasse TO on",
			"active": 0
		},
		"fruehswitch_rest_on": {
			"rule": "IF d_datetime.hour == 04 AND d_datetime.minute == 00 THEN switch DEVICE DoseStube AND Dosereserve AND Dosereserve1 AND DoseHauseingang TO on",
			"active": 0
		},
		"katzenhaus_on": {
			"rule": "IF outside.temperature < 2.0 THEN switch DEVICE DoseKatzenhaus TO on",
			"active": 0
		},
		"katzenhaus_off": {
			"rule": "IF outside.temperature > 2.01 THEN switch DEVICE DoseKatzenhaus TO off",
			"active": 0
		}
	},
	"gui": {
		"d_datetime": {
			"name": "Datum und Zeit",
			"group": [ "Allgemein" ],
			"media": [ "all" ],
			"format": "DD-MM-YYYY HH:mm:ss Z"
		},
		"DoseFlur": {
			"name": "Flur",
			"group": [ "Steckdosen" ],
			"media": [ "all" ],
			"readonly": 0
		},
		"DoseStube": {
			"name": "Stube",
			"group": [ "Steckdosen" ],
			"media": [ "all" ],
			"readonly": 0
		},
		"DoseTerasse": {
			"name": "Terasse",
			"group": [ "Steckdosen" ],
			"media": [ "all" ],
			"readonly": 0
		},
		"DoseHauseingang": {
			"name": "Hauseingang",
			"group": [ "Steckdosen" ],
			"media": [ "all" ],
			"readonly": 0
		},
		"Dosereserve": {
			"name": "Festtagsbeleuchtung",
			"group": [ "Steckdosen" ],
			"media": [ "all" ],
			"readonly": 0
		},
		"Dosereserve1": {
			"name": "Festtagsbeleuchtung",
			"group": [ "Steckdosen" ],
			"media": [ "all" ],
			"readonly": 0
		},
		"DoseAquariumStube": {
			"name": "Aquarium Stube",
			"group": [ "Steckdosen" ],
			"media": [ "all" ],
			"readonly": 0
		},
		"DoseAquariumArbeitszimmer": {
			"name": "Aquarium Arbeitszimmer",
			"group": [ "Steckdosen" ],
			"media": [ "all" ],
			"readonly": 0
		},
		"DoseKatzenhaus": {
			"name": "Katzenhaus",
			"group": [ "Steckdosen" ],
			"media": [ "all" ],
			"readonly": 0
		},
		"outside": {
			"name": "Sonnenaufgang/Sonnenuntergang/Aussentemperatur/Luftfeuchte",
			"group": [ "Allgemein" ],
			"media": [ "all" ]
		},
		"d_sunriseset": {
			"name": "Sonnenaufgang/Sonnenuntergang",
			"group": [ "Allgemein" ],
			"media": [ "all" ]
		}
	},
	"settings": {
		"log-level": 6,
		"pid-file": "/var/run/pilight.pid",
		"log-file": "/var/log/pilight.log",
		"webserver-enable": 1,
		"webserver-http-port": 80,
		"webserver-cache": 0,
		"webserver-root": "/usr/local/share/pilight",
		"protocol-root": "/usr/local/lib/pilight/protocols",
		"ntp-servers": [ "0.de.pool.ntp.org", "1.de.pool.ntp.org" ],
                "standalone": 0,
		"watchdog-enable": 0
	},
	"hardware": {
		"433gpio": {
			"sender": 0,
			"receiver": 1
		}
	},
	"registry": {
		"webgui": {
			"tabs": 0
		},
		"webserver": {
			"ssl": {
				"certificate": {
					"location": "/etc/pilight/pilight.pem"
				}
			}
		},
		"pilight": {
			"version": {
				"current": "7.0"
			}
		}
	}
}
