
                <div class="weather">
                    <div class="innerWrap">
                        <h3 class="colored-background">
                            Wetter: 
                            <img height="45" width="45" align="absmiddle" style="border: medium none; width: 45px; height: 45px; background: url(&quot;http://openweathermap.org/img/w/.png&quot;) repeat scroll 0% 0% transparent;" alt="title" src="http://openweathermap.org/images/transparent.png"/>
                        </h3>
                        <dl>
        
                        </dl>
                    </div>
                </div>
                